\relax 
\providecommand\hyper@newdestlabel[2]{}
\providecommand\HyperFirstAtBeginDocument{\AtBeginDocument}
\HyperFirstAtBeginDocument{\ifx\hyper@anchor\@undefined
\global\let\oldcontentsline\contentsline
\gdef\contentsline#1#2#3#4{\oldcontentsline{#1}{#2}{#3}}
\global\let\oldnewlabel\newlabel
\gdef\newlabel#1#2{\newlabelxx{#1}#2}
\gdef\newlabelxx#1#2#3#4#5#6{\oldnewlabel{#1}{{#2}{#3}}}
\AtEndDocument{\ifx\hyper@anchor\@undefined
\let\contentsline\oldcontentsline
\let\newlabel\oldnewlabel
\fi}
\fi}
\global\let\hyper@last\relax 
\gdef\HyperFirstAtBeginDocument#1{#1}
\providecommand\HyField@AuxAddToFields[1]{}
\providecommand\HyField@AuxAddToCoFields[2]{}
\select@language{italian}
\@writefile{toc}{\select@language{italian}}
\@writefile{lof}{\select@language{italian}}
\@writefile{lot}{\select@language{italian}}
\select@language{italian}
\@writefile{toc}{\select@language{italian}}
\@writefile{lof}{\select@language{italian}}
\@writefile{lot}{\select@language{italian}}
\@writefile{toc}{\contentsline {chapter}{Introduzione}{1}{chapter*.2}}
\@writefile{toc}{\contentsline {chapter}{\numberline {1}Analisi dati Monte Titoli S.p.A}{2}{chapter.1}}
\@writefile{lof}{\addvspace {10\p@ }}
\@writefile{lot}{\addvspace {10\p@ }}
\@writefile{toc}{\contentsline {section}{\numberline {1.1}Caricamento librerie}{2}{section.1.1}}
\@writefile{toc}{\contentsline {section}{\numberline {1.2}Caricamento dati in R}{2}{section.1.2}}
\@writefile{toc}{\contentsline {section}{\numberline {1.3}Nomi delle variabili}{3}{section.1.3}}
\@writefile{toc}{\contentsline {section}{\numberline {1.4}Analisi della struttura dati}{3}{section.1.4}}
\@writefile{toc}{\contentsline {section}{\numberline {1.5}Valori nulli}{3}{section.1.5}}
\@writefile{toc}{\contentsline {section}{\numberline {1.6}Simboli significativi}{4}{section.1.6}}
\@writefile{toc}{\contentsline {section}{\numberline {1.7}Esecuzione di un grafico tramite funzione plot()}{4}{section.1.7}}
\@writefile{toc}{\contentsline {section}{\numberline {1.8}Esecuzione di un grafico tramite pacchetto ggplot2()}{5}{section.1.8}}
\@writefile{toc}{\contentsline {chapter}{\numberline {2}Creazione di file PDF, HTML, WORD}{7}{chapter.2}}
\@writefile{lof}{\addvspace {10\p@ }}
\@writefile{lot}{\addvspace {10\p@ }}
\@writefile{toc}{\contentsline {section}{\numberline {2.1}Generazione dei file}{7}{section.2.1}}
\@writefile{toc}{\contentsline {chapter}{\numberline {3}Presentazione Markdown Presentation}{8}{chapter.3}}
\@writefile{lof}{\addvspace {10\p@ }}
\@writefile{lot}{\addvspace {10\p@ }}
\@writefile{toc}{\contentsline {section}{\numberline {3.1}Presentazione HTML}{8}{section.3.1}}
\bibcite{Wikipedia}{1}
\bibcite{Finanza Aperta}{2}
\bibstyle{abbrv}
\@writefile{toc}{\contentsline {chapter}{Bibliografia}{9}{section.3.1}}
